{
    "_fitted": {
        "dtype": "<class 'bool'>",
        "value": true
    },
    "cat_impute_values": {
        "dtype": "<class 'dict'>",
        "value": {}
    },
    "cat_unique_values": {
        "dtype": "<class 'dict'>",
        "value": {}
    },
    "dtypes": {
        "dtype": "<class 'pandas.core.series.Series'>",
        "value": {
            "index": [
                "col01",
                "col02",
                "col03",
                "col04",
                "col05",
                "col06",
                "col07",
                "col08",
                "col09",
                "col010",
                "col011",
                "col012",
                "col013",
                "col014",
                "col015",
                "col016",
                "col017",
                "col018",
                "col019",
                "col020",
                "col021",
                "col022",
                "col023",
                "col024",
                "col025",
                "col026",
                "col027",
                "col028",
                "col029",
                "col030",
                "col031",
                "col032",
                "col033",
                "col034",
                "col035",
                "col036",
                "col037",
                "col038",
                "col039",
                "col040",
                "col041",
                "col042",
                "col043",
                "col044",
                "col045",
                "col046",
                "col047",
                "col048"
            ],
            "values": [
                "float32",
                "float32",
                "float32",
                "float32",
                "float32",
                "float32",
                "float32",
                "float32",
                "float32",
                "float32",
                "float32",
                "float32",
                "float32",
                "float32",
                "float32",
                "float32",
                "float32",
                "float32",
                "float32",
                "float32",
                "float32",
                "float32",
                "float32",
                "float32",
                "float32",
                "float32",
                "float32",
                "float32",
                "float32",
                "float32",
                "float32",
                "float32",
                "float32",
                "float32",
                "float32",
                "float32",
                "float32",
                "float32",
                "float32",
                "float32",
                "float32",
                "float32",
                "float32",
                "float32",
                "float32",
                "float32",
                "float32",
                "float32"
            ]
        }
    },
    "label_encoder": {
        "dtype": "<class 'sklearn.preprocessing._label.LabelEncoder'>",
        "value": {
            "classes_": [
                0,
                1
            ],
            "params": {}
        }
    },
    "task": {
        "dtype": "<class 'str'>",
        "value": "classification"
    }
}